{
    "version": "1.0",
    "envConfig": {
        "test": {
            "targetServers": [
                {
                    "name": "Enterprisetarget",
                    "host": "EDIT.com",
                    "isEnabled": true,
                    "port": 8080,
                    "sSLInfo": {
                        "enabled": "true",
                        "clientAuthEnabled": "false",
                        "keyStore": "keystore_name",
                        "trustStore": "truststore_name",
                        "keyAlias": "key_alias",
                        "ignoreValidationErrors": "false"
                    }
                },
                {
                    "name": "ESBTarget",
                    "host": "enterprise.com",
                    "isEnabled": true,
                    "port": 8080,
                    "sSLInfo": {
                        "enabled": "true",
                        "clientAuthEnabled": "false",
                        "keyStore": "keystore_name",
                        "trustStore": "truststore_name",
                        "keyAlias": "key_alias",
                        "ignoreValidationErrors": "false"
                    }
                }
            ],
            "virtualHosts": [
                {
                    "name": "EnterpriseHost",
                    "hostAliases": ["example.com", "api.example.com"],
                    "isEnabled": true,
                    "port": 80
                },
                {
                    "name": "ESBSecureHost",
                    "hostAliases": ["enterprise.com"],
                    "isEnabled": true,
                    "port": 443,
                    "sSLInfo": {
                        "enabled": "true",
                        "clientAuthEnabled": "false",
                        "keyStore": "keystore_name",
                        "trustStore": "truststore_name",
                        "keyAlias": "key_alias",
                        "ignoreValidationErrors": "false"
                    }
                }
            ],
            "caches": [
                {
                    "name": "quote",
                    "description": "products quote"
                },
                {
                    "name": "userMetadata",
                    "description": "user metadata cache",
                    "diskSizeInMB": 0,
                    "distributed": true,
                    "inMemorySizeInKB": 0,
                    "maxElementsInMemory": 0,
                    "maxElementsOnDisk": 0,
                    "overflowToDisk": false,
                    "persistent": false
                }
            ],
            "kvms": [
                {
                    "name": "backend_account_config",
                    "entry": [
                        {
                            "name": "BerendsCompany",
                            "value": "example.com"
                        },
                        {
                            "name": "PREFIX",
                            "value": "EDITvaluehere"
                        }
                    ]
                }
            ]
        }
    }
}